79998889911
79500181758
79500156167
79119256017
79516697639
79118468346
79119112700
79052742050
79112100880
79522393676
79516617520
79811446811
79213207638
79119483079
79119208787
79117689942
79626916391
79112069334
79119127164
79117652339
79119024232
79117566136
79118139462
79111917080
79618062899
79117764114
79811483770
79111539736
79117473173
79117790595
79119193399
79062413121
79117582116
79657570075
79119951635
79219030071
79111958222
79119146160
79500070000
79523726232
79117777350
79219092299
79219531352
79215794446
79119164161
79118277082
79119099419
79819563774
79500300973
79219613145
79219806887
79500239926
79516434280
79602330011
79117840890
79217964375
79217449925
79523746097
79219354916
79522059730
79219460038
79500181758
79500156167
79119256017
79516697639
79118468346
79119112700
79052742050
79112100880
79522393676
79516617520
79811446811
79213207638
79119483079
79119208787
79117689942
79626916391
79112069334
79119127164
79117652339
79119024232
79117566136
79118139462
79111917080
79618062899
79117764114
79811483770
79111539736
79117473173
79117790595
79119193399
79062413121
79117582116
79657570075
79119951635
79219030071
79111958222
79119146160
79500070000
79523726232
79117777350
79219092299
79219531352
79215794446
79119164161
79118277082
79119099419
79819563774
79500300973
79219613145
79219806887
79500239926
79516434280
79602330011
79117840890
79217964375
79217449925
79523746097
79219354916
79522059730
79219460038
4455
6666
7777
79372258625
79993958130
79990150305
79960200889
79857717174
79990030409
79778129485
79771564352
79889443236
79879638170
79998101595
79307989030
79663695965
79858218871
79772828582
79859114419
79772908278
79993614599
79774046961
79997177439
79994544973
79993618742
79993301883
79990150626
79955006168
79913655575
79876840222
79870461486
79859388783
79296768098
79296025105
79296657964
79388974420
79657041088
79513712851
79510810215
79857699417
79856667730
79856493715
79856135751
79855721819
79854303825
79853441420
79852507920
79852333486
79851601211
79516992797
79774762997
79637578622
79651056194
79652192735
79295967578
79295496424
79654050730
79513764583
79850098999
79841565386
79821400486
79821350951
79805126662
79788481011
79788140358
79788008121
79779037902
79778970285
79645945280
79608003738
79660725725
79657020055
79611810477
79296933171
79295082496
79306979380
79365555130
79775725008
79775212832
79773614738
79773471709
79773458824
79299249486
79299278909
79689473933
79687295999
79686784575
79685800314
79683871250
79679623470
79672376023
79283103430
79308227575
79621110471
79295221126
79653971307
79653767728
79653414911
79653224551
79652953217
79652946806
79295866814
79299187899
79269725605
79295866475
79281113902
79271045052
79295013671
79269598780
79651382535
79651272549
79647963924
79645368754
79645196869
79645135293
79638458521
79299838803
79287959577
79636153253
79632243776
79631617355
79608122421
79606717001
79602489148
79530445589
79295080704
79503131548
79269142874
79296213133
79296433777
79520979566
79511335628
79379614152
79379158441
79280604599
79268375353
79271099505
79268265974
79299170779
79295357757
79378921980
79377852373
79376964058
79370837000
79319045033
79313140973
79308391292
79308232830
79295559491
79267016278
79290506131
79296037677
79308214930
79302897634
79299222625
79299142042
79298472373
79296942843
79266653967
79295142369
79286617107
79295427164
79277885352
79278487843
79269505001
79269511988
79279572297
79287624002
79296810152
79269951617
79296714114
79296687150
79296394417
79296023985
79268503053
79268780990
79295957438
79295939575
79295577945
79295422781
79295329045
79295119302
79269402326
79293644189
79268881195
79268185993
79290025815
79288195573
79286903210
79286627724
79286352037
79286300646
79283529122
79269258676
79269121017
79266606771
79267510503
79267143984
79283459252
79281034796
79273408360
79273062770
79267675343
79266246108
79272607115
79272461437
79270645075
79270184909
79269863600
79885547700
79877665775
79269791055
79266803350
79269540774
79269530395
79269506162
79269471027
79269380302
79267955931
79269061642
79266329782
79269237789
79268880132
79268822817
79268804214
79268685240
79266342350
79268616684
79268608158
79268604799
79268595171
79268520658
79267953258
79267690557
79267654891
79267560945
79267267475
79266842712
79266559957
79266551703
79266537854
79266212134
79266186119
79266161048
79266153033
79266018939
79265992539
79265987736
79265894293
79265780045
79265769045
79265768493
79263239420
79262701591
79265679375
79265669050
79265655489
79265547998
79265458189
79265373296
79265318877
79265309666
79265271399
79264963821
79263462444
79263891562
79262399297
79263130417
79264001499
79264808318
79264781142
79264768167
79264735459
79264650275
79264589761
79264555345
79264548396
79264360689
79264330234
79263491527
79264305050
79264281377
79264257779
79264231992
79264209251
79264139135
79264104182
79264069746
79264062219
79264049780
79263892466
79263768865
79263731615
79263713951
79263557214
79263434433
79261749826
79256331190
79261980960
79262374591
79261511432
79261961276
79262460566
79261516116
79262337344
79262044342
79256262461
79261498889
79256365976
79263425036
79262110040
79263316954
79263007237
79261551200
79258314147
79260925329
79260151297
79258510000
79259296638
79260278390
79258835056
79261160754
79261061789
79261756338
79254831980
79260893677
79261992871
79262874696
79262859187
79262842606
79262841794
79262787043
79262641777
79262636529
79262566365
79254235123
79261036611
79261605476
79258829924
79260618579
79254497338
79259059299
79261826748
79254440018
79254228503
79262316977
79262165912
79262164977
79262127213
79262038218
79256441224
79258575655
79259069380
79256087728
79253586572
79258557217
79260701690
79261306882
79255131566
79261483027
79261743634
79261646511
79254004281
79258183707
79261635133
79261599640
79261595085
79261494668
79252665965
79257154758
79260445370
79258008890
79252164338
79256378301
79257006307
79261476952
79261467924
79261299807
79261204444
79261122369
79261037046
79258546364
79252644915
79256672515
79256152714
79254363238
79260321152
79260242230
79260219905
79260213989
79260176305
79259853708
79259400032
79259353156
79259221083
79259220783
79259098558
79259046506
79258927675
79255744501
79254213301
79255279948
79251483481
79253187775
79252011999
79258315960
79255064228
79250251489
79246266421
79251520464
79254188254
79251497632
79257084494
79250700313
79254139417
79251128600
79258582837
79299984879
79299940127
79299690808
79299485257
79261957313
79261816690
79263198940
79263185733
79263125749
79263070916
79263029812
79258306055
79252661386
79250619063
79257884045
79257555796
79257396584
79257354465
79257257280
79256545200
79252760808
79250603441
79251505482
79251532887
79256539485
79255916952
79254781987
79251875690
79251029912
79253186155
79252395100
79255557832
79255236452
79255088810
79254872035
79254855073
79254839928
79217245658
79250442415
79250800687
79253694857
79252588788
79251956844
79254694860
79254409389
79254341597
79254321320
79252171800
79250607546
79225238639
79250293439
79250266169
79200208078
79253880019
79253777152
79253432324
79250111112
79245064334
79251142731
79251085503
79226788679
79253351662
79253103012
79253024407
79252857009
79252839143
79252777973
79252717526
79216816607
79202444649
79252141355
79252092854
79252080909
79197794037
79252063715
79251919107
79251814694
79251682209
79216846541
79251381458
79250707543
79250618155
79250490503
79250339516
79164321934
79223757003
79216595788
79215974243
79215363429
79161363330
79175348170
79212084228
79209913749
79209815644
79208842973
79208781344
79208771994
79207812557
79207533685
79191015492
79204164378
79163205913
79163619649
79165500949
79163753559
79207120725
79207087723
79206965421
79206380357
79203598119
79164623609
79055732756
79203103252
79202586720
79202284068
79201532322
79201003989
79200539560
79199677017
79190032293
79185860348
79176795775
79250993263
79260968293
79260968143
79260849113
79253878244
79260684629
79260608658
79175380070
79175099933
79169836271
79169659773
79169361445
79168504536
79168459176
79168127531
79167961491
79166582790
79166542090
79166439963
79166418218
79166005895
79165931884
79164956931
79164289878
79163947046
79067271615
79163702660
79163351725
79162215517
79161885025
79161603791
79161589506
79161192761
79160969728
79160334543
79156649079
79155491557
79154934025
79154521679
79153651363
79152977341
79152871269
79046282758
79151760488
79151747647
79151307719
79149927050
79138817381
79137203307
79136511899
79132012918
79036262031
79115782609
79113010404
79108485573
79108201991
79104776144
79055922832
74992604804
79060869134
79055862772
79059768884
79057594349
79096602907
79104665043
79104152385
79104055587
79103461376
79102306353
79096221306
79069775422
79067915627
79067732295
79057588764
79057011178
79055551692
79050273130
79039621836
79038203441
79037981330
78776677777
79050067389
74993430025
74993732938
74956490327
79269299922
79261790786
74954601764
79037857075
79037788230
79037283368
79037240642
79775725890
79037187722
79036876052
79036759903
79036611241
79036123669
79035589397
79035238539
79035041254
79033335033
79032980228
79031976022
79031888460
79031812636
79252815945
79031443724
79031337323
79031663787
79999949090
79264356724
79268785970
79269253242
79773753791
79256596964
79161213512
79256177699
78005788899
79263547500
79686325825
79265254851
79210082600
79250751500
79026962344
78555585855
79295700319
79269588909
79295521234
79035833355
79258275482
79296740023
79251348883
79618081128
78002004823
74956916159
79295687249
79267094111
79023773773
79013658297
78973652785
76852140177
79313860726
79163662475
79507905558
79299004002
79260853061
79263796998
73433332222
79060670025
79260561619
74992653167
74755525588
74734434343
79276091798
74636634636
74443424234
79161200321
79286662606
79254745556
79209299119
79636585698
79262582811
79262350995
79778037998
79267126669
79605778916
79167417214
79262670540
79993618738
79161387376
79850938292
79851995837
79265893009
79035248375
79123536232
79250868773
79202187698
79207847300
79645942222
79255076115
79115012800
79287768041
79663373940
79259986382
79660052607
79272778956
79532099277
79217483900
79268643399
79251319491
79099999550
79265946308
79269060952
79646373452
79250010585
79263291937
79150801595
79160840563
79031301238
79164230021
79150082806
79256857165
79215961917
79263840302
79208087666
79175754666
79213643164
79152774130
79152560192
79219381234
79250223050
79250001614
79245582081
79245381749
79243639286
79222178814
79220003069
79237418376
79236608630
79231550558
79231158624
79229908882
79222599438
79229702649
79229163144
79228290070
79227653312
79206952408
79176694400
79205167331
79204754683
79225486368
79222503140
79219212777
79205800065
79202307500
79225295608
79224596333
79224517384
79224434567
79165899540
79219538935
79218918566
79263268821
79857620003
79269577274
79154254090
79272602704
79257773381
79154872010
79250750756
79257541583
79264257534
79023428112
79645568223
79166433412
79167851480
79260794656
79260920856
79264903981
79252768321
79260262590
79265354590
79265711856
79299239909
79165153120
79253782225
79150352232
79261017849
79251169383
79267531048
79037657576
79261739575
79032139667
79189057795
79161150081
79854902545
79990147343
79253760719
79261732386
79250577287
79686479050
79164813241
79852119865
79255520212
79295930813
79299358171
79266789684
79168449714
79253835084
79031950663
79254449631
79857224354
79853058125
79854697265
79161002332
79372480408
79264845444
79779628322
79263737975
79034790795
79264250168
79268719283
79259062011
79266731913
79261838723
79532864508
79262580551
79265716654
79262955633
79165366109
79181327777
79261900201
79031592309
79265387056
79104391028
79166004448
79161752005
79252928516
79175632036
79250401166
79661920507
79151438240
79778373873
79789120217
79106264102
79253187077
79250620048
79250051750
79268311749
79299213393
79262200822
79268110186
79268698660
79268433601
79152664426
79260282367
79266988185
79266530212
79263095206
79265279957
79264333157
79263957718
79261688835
79629071177
79268782178
79267110738
79165538615
79265799556
79265547860
79263586842
79265541379
79262557270
79265416889
79286140291
79165041205
79263734591
79255050512
79262278447
79262264444
79261287516
79265823546
79267000724
79265774273
79185969655
79261778425
79268733077
79169343962
79168684207
79262217100
79269494246
79163432898
79263888083
79216160461
79370345554
79261204190
79260701189
79044966947
79635113599
79030081993
79255760192
79260741290
79296020500
79169675766
79266731389
79270943471
79299241699
79104719810
79268184134
74959178160
79255524415
79165501090
79778331687
79139162677
79151993669
79151302042
79094252350
79258508819
79036863638
79295531440
79262444550
79651816386
79296730199
79265744596
79163812803
79269958008
79153330166
79259200120
79853606030
79268639849
79267576475
79265524303
79777237365
79253845351
79258020969
79254538604
79852388320
79266718816
79154351512
79250691579
79266372504
79262221809
79266357274
79265209831
74832688122
79263414661
79161586588
79031771585
79629253673
79163133147
79260415701
79030037800
79161600818
79161023063
79257799880
79161346795
79096987157
79269786848
79683743437
79051512744
79262537688
79671449055
79255673971
79774970007
79003180102
79151875342
79859789405
79166981040
79166764976
79164991612
79262056552
79166048075
79161113352
79096447817
79636815091
79688950276
79266093823
79261234926
79623770064
79162034207
79266785825
79296713495
79255252661
79255024605
79154406282
79255894043
79267366101
79264723860
79851772767
79263926618
79388742507
79265693677
79057289249
79163563719
79160139097
79263345312
79264781921
79165951231
79260339606
79852115977
79037148407
79031007400
79651364748
79250747260
79153407923
79037108258
79266918244
79257073165
79263351008
79851799155
79096941829
79250001947
79260722400
79263595550
79254524047
79516827658
79265516201
79265993999
79268113927
79991051657
79168831322
79263854495
79199999128
79253200763
79269114783
79036691024
79296458889
79265822225
79262918807
79235297770
79258200672
79031202619
79264234445
79260852759
79651884811
79263741571
79168755555
79295728792
79261818802
79032477653
79999689765
78002004832
79055242914
79774845521
79261587411
79600642730
79651355090
79250539467
79268551010
79269112777
79067701168
79267069746
79150873177
79261307989
79263401712
79647062489
79266041662
79263335397
79857614554
79103235440
79261191661
79255999993
79053109185
79256199980
79213620590
79162926159
79162490517
79272521852
79851813068
79265269882
79038071095
79257874545
79262399715
79199708651
79851746101
79269089132
79269595715
79296803744
79080980980
79262001514
79266203676
79853329367
79104223041
79263248140
79376427473
79164349025
79260639303
79262046673
79816899905
79172179902
79265474050
79261799522
79035081031
79251732517
79265512201
79163597636
79296906214
79166752865
79265828163
79263076061
79255170123
79261192554
79269179151
79251210678
79197860784
79200490333
79160533791
79859859855
79195438176
79160707155
79262450702
79262229507
79261312121
79788653739
79261563412
79152636034
79266823384
75454545454
79295274282
79164944336
79066987532
79163664498
79163530901
79298254449
73750000000
79514728761
79192987551
79508090532
73456789009
79253170199
79521111111
73810000000
79262919013
79032768686
79268158992
79104405544
79150011143
79629294444
79135555555
79032876077
79253059383
79162632843
79055174992
79266658886
79160026001
79152581654
79011111111
79268771408
79258923677
79685371177
79026449877
79997459014
78888888888
79104019652
79267360046
79999999999
79267690557
79264257534
79266658886
79260262590
79307989030
79255131566
79268880132
79635113599
79283103430
79163702660
79104776144
79876840222
79152560192
79998174401
79267560945
79370837000
79268771408
79850098999
79281034796
79264281377
79269511988
79295577945
79663373940
79261646511
79262641777
79261299807
79261511432
79269112777
79167961491
79222503140
79263095206
79150352232
79036691024
79853329367
79255999993
79262001514
79160533791
79250539467
79298254449
79037148407
79286352037
79268311749
79660052607
79265458189
79031976022
79216816607
79295866814
79161387376
79269121017
79138817381
79175632036
79773614738
79268685240
79268639849
79253878244
79778037998
79999949090
79280604599
79267510503
79805126662
79774046961
79250293439
79268110186
79263491527
79252141355
79372258625
79264781142
79149927050
79096602907
79262221809
79260282367
79165366109
79150352232
79286617107
79150352232
79268311749
79660052607
79265458189
79031976022
79216816607
79295866814
79161387376
79269121017
79138817381
79175632036
79773614738
79268685240
79268639849
79253878244
79778037998
79999949090
79280604599
79267510503
79805126662
79774046961
79250293439
79268110186
79263491527
79252141355
79372258625
79264781142
79149927050
79096602907
79262221809
79260282367
79165366109
79150352232
79286617107
79150352232
79150414112
79060378152
79258941692
79266688683
79772810877
79608718247
79308950811
79088346795
79031611546
79118683107
79881606599
79119614597
79370694600
79371801486
79097332058
79049679062
79219931771
79258334935
79219804898
79680611184
79990660929
79241489490
79046191480
79262956071
79265854959
79096282668
79269404412
79214458003
79154596253
79319852402
79136664997
79203003877
79218490169
79254644937
79254644937
79263592111
79255066310
79037004744
79605454876
79085842927
79255051234
79266946395
79379858258
79201568515
79215844380
79265354757
79788728005
79633828098
79219633645
79823072167
79296459686
79296459686
79529348327
79514200228
79263190410
79506758279
79216422203
79294904915
79150933615
79602549796
79162253359
79111647079
79602321442
79962328751
79269110238
79371858177
79219187148
79269680854
79222826118
79222826118
79319704638
79315778107
79271034451
79376376601
79203753340
79530169313
79299412821
79248253868
79257273462
79873969858
79293996997
79153322238
79269543929
79268555527
79270484948
79645172000
79057589411
79643775989
79998039748
79855153436
79162191595
79265460630
79272853456
79151786450
79164207220
79228302124
79262650908
79152327856
79218671837
79213382591
79688708789
79036210857
79252767851
79142036362
79020134777
79255117441
79653818851
79242195138
79177850361
79376573865
79283593505
79213000416
79167816131
79788598693
79260539355
79532106119
79787062621
79219996402
79219494390
79099306738
79211028357
79874792797
79177176376
79219788767
79214166275
79214007474
79213313734
79316011327
79312213582
79374109273
79197267776
79197267776
79314040232
79217574812
79219585050
79219661611
79254999550
79518230233
79197632010
79111268575
79265420075
79213956585
79217244087
79657630143
79509912783
79883876935
79268285546
79043600017
79125102459
79608338390
79214748688
79116021637
79214727286
79183701974
79114775775
79212415062
79214341015
79312030477
79217726497
79247717748
79312109906
79219023053
79260113759
79389032851
79214578417
79817229482
79295009773
79219710101
79217345595
79219583623
79052427353
79165815363
79219678125
79255251095
79217701718
79042292440
79203968197
79219993138
79657778884
79216479588
79168397535
79129880047
79212272563
79206682686
79313303605
79266836352
79252577724
79851358674
79219205926
79219777479
79215809260
79199596544
79037257898
79217943040
79536600806
79010982608
79060299818
79313051559
79219358683
79266154495
79219632605
79312532915
79303061307
79217884089
79313061970
79214341072
79219323991
79055223120
79325315652
79219615131
79213011315
79217202248
79217443018
79328455563
79328455563
79006447108
79062596901
79376357784
79284165253
79500243331
79992583681
79219369469
79112320850
79539150024
79096017987
79263956909
79210997424
79266309264
79030932999
79036894149
79210444256
79218274566
79788093919
78007077358
79217734880
79680328606
79216582997
79242066358
79112290869
79263103520
79312216808
79040026534
79219476919
79219569706
79226685150
79219039119
79219039119
79208008058
79266706054
79258405252
79217545298
79215833023
79269745354
79261261687
79184571617
79168851450
79226558898
79210441767
79174009256
79834195307
79308452421
79152476757
79058996997
79853619027
79090098298
79771741639
79265588341
79878435716
79534741155
79263127475
79263127475
79266688683
79250952660
79383003914
79383003914
79255204603
79531255819
79531255819
79051319850
79210804522
79042713891
79214913133
79219721091
79213973797
79111472336
79213206473
79203054760
79313622820
79091386060
74994971029
79377115375
79097614544
79215926870
79851280690
79286543920
79167596170
79213314314
79213387608
79312992677
79241002218
79260883474
79262102054
79006526850
79284302610
79856181055
79219368940
79214126963
79502412006
79004615143
79219663305
79151551777
79858797323
79112243306
79522373326
79119262459
79219628491
79995142149
79213511359
79219375736
79235517896
79522474235
79118462398
79213535450
79313979174
78965411713
79165986930
79778170204
79119574155
79520586949
79116166858
79518211298
79267598671
79216401092
79500395206
79052784415
79284057674
79095549961
79168259527
79162027451
79017852740
79006248212
79265331926
79999756509
79257613500
79067302179
79067302179
79063597866
79274774061
79608326196
79219565398
79214220420
79219357254
79250915211
79539062372
79256299361
79009202003
79779706547
79500313125
79370943236
79873489133
79118630584
79261598467
79110988887
79602461026
79080647333
79687035851
79216139932
79307167546
79531574600
79119481971
79990387166
79219622175
79270940189
79303576597
79215868487
79215697276
79263994468
79212738397
79165392343
79527480613
79254601990
79602595681
79818635915
79269047797
79191395315
79626000756
79217284732
79777884521
79644324147
79217557751
79219409307
79500278383
79219383131
79248220630
79213811457
79526656006
79217448020
79650835382
79021359257
79998844020
79117782924
77026288960
79219090660
79684735795
79219468999
79275777743
79112556258
79265708988
79258568308
79661529753
79227526990
79684331600
79517516878
79313914780
79264404926
79522878320
79287446879
79263551111
79267983535
79536629590
79517223199
79163951239
79168211893
79213235000
79211228193
79119737153
79244448207
79219610793
79214352809
79212048750
79775023956
79218164477
79288812566
79212580536
79023074798
79517207130
79150210820
79817793242
79967427049
79851339773
79854690085
79817264675
79269064787
79261099789
79500447356
79005616141
79045553366
79254644937
79291191748
79312101065
79500487633
79219697974
79231641032
79206874222
79132540057
79045558703
79227321804
79153125877
79500176501
79319721696
79522327700
79500537146
79163977311
79672025899
79246316318
79523919905
79206645439
79050918877
79509903373
79037742849
79219525411
79507762559
79163593661
79650017041
79043438916
79022525119
79602635421
79288615870
79086928102
79310078010
77054933353
79002952899
79258405252
79040377686
79116224912
79204573630
79262245532
78124136798
79376012506
79216275515
79301768997
79268611502
79000123501
79831839942
79313355123
79619527495
79779205134
79167524218
79324703880
79382043366
79382043366
79515381383
79016633743
79043221829
79781383116
79614712517
77772097723
79000477520
79859865595
79315796919
79104005172
79851828949
79776307419
79299365593
79024041025
79213013460
79373927166
79250230416
79039511373
79057394066
79531120212
79291104834
79219823886
79219426230
79114725478
79643907901
79520507882
79626801242
79216395993
79787161030
79213485677
79319652184
79165319745
79107470215
79219545232
79217072910
79296780896
79060417870
79060417870
79161850350
79150668681
79119755236
79103777007
79227549080
79301055758
79118154565
79218760648
79217443018
79536643873
79217081874
79213019282
79212472809
79531555757
79663070089
79997805946
79241784751
79219538899
79313309180
79214745994
79532770011
79779244754
79522955797
79219658885
79213488888
79645757644
79165903815
79086948979
79217341050
79506843152
79523551848
79227216213
79197259401
79214170905
79112664881
79516644200
79853327456
79535092140
79163695759
79373843773
79163695759
79219532876
79109508630
79525439405
79533610033
79212754528
79388670905
79522912500
79531423161
79212062777
79091652539
79253241458
79211096027
79295197071
79211096027
79245372112
79219521104
79523994345
79377136191
79214291320
79213013884
79006546607
79024166409
79215131875
79111546243
79266982745
79531787737
79150003066
79268986318
79216231204
79009137705
79214496909
79533529223
79780983104
79523985079
79260739043
79125647815
79207536900
79201130434
79219628491
79858186172
79384885512
79200754295
77,91195E13
79219485163
79212975332
79523084749
79672081717
79219615117
79213404282
79261777182
79215804344
79160671472
79162253359
79162253359
79153539508
79213320206
79022840139
79067772714
79531429563
79500407749
79502240150
79500291388
79118658299
79312050316
79527912959
79212037666
79215754347
79021359911
79045179779
79510338775
79219741004
79218746946
79212605020
79212912341
79215889899
79500489829
79217773310
79217156026
79235856875
79500294223
79213564635
79328435708
79131604727
79037187126
79217211499
79215498915
79215544005
79650648584
79514083722
79787047035
79046301132
79168595394
79160880078
79161468298
79162159874
79219503375
79096636685
79257016687
79296051128
79219483820
79213476817
79967698853
79219498096
79288511592
79213800702
79169153971
79212595746
79219385565
79817914929
79533044350
79280680504
79219113700
79219696375
79219434091
79211127864
79062866614
79163026744
79218236600
79219387559
79130966565
79213074879
79102560899
79216312627
79219408050
79500753281
79818843264
79219302676
79115040408
79811945748
79216480774
79602856864
79218492338
79218492338
79219140888
79214342977
79219142245
79850633342
79250249327
79675077843
79214089284
79218787832
79216411471
79219434567
79162856609
79684043162
79787183231
79606608887
79828036628
79529065163
79617132948
79098663135
79832063845
79647460135
79272654269
79259180735
79818911905
79312905438
79961824045
79085791004
79257222201
79615382768
79882408810
79858044106
79217144657
79667515935
79969213980
79286850869
79296595779
79500386077
79277640087
79186001143
79061460011
79110832757
79517271133
79212332370
79780659651
79030056200
79295500037
79046147244
79312885451
79215808947
79213747868
79523906077
79313572881
79772699069
79033477951
79202695022
79517057073
79206609967
79303474501
79219100363
79214446099
79219449544
79219622220
79214470472
79642948910
79060774573
79999714010
79045135415
79218800814
79210075718
79278132330
79211382575
79229702649
79500293218
79376742183
79045546636
79268558217
79210408902
79779674283
79149485301
79535485655
79057231395
79183887145
79119825955
79212626770
79167164345
79167164345
79213633270
79219775179
79219641643
79213604139
79213021341
79119043152
79175671650
79217750289
79319009855
79153881538
79067234284
79217712956
79264055170
79213888220
79296030773
79110735999
79021987706
79175901395
79217765020
79778701794
79164533181
79522978422
79262480689
79219398023
79213910715
79219613014
79260288349
79214024365
79319799296
79675906335
79119564312
79821689318
79031372699
79509630060
79219638950
79670392811
79213399969
79217703106
79219970063
79175266104
79216445960
79217823938
79062389292
79312023738
79516701423
79780373118
79281660804
79313527190
79046081948
79210052010
79502583129
73,80666E11
79777135817
79219113102
79264321042
79214030026
79027094611
79654052333
79212440433
79530577438
79250438725
79052214061
79999295035
79215555813
79500179178
79201054309
79219025555
79246047771
79042672884
79167871326
79218979343
79967900806
79052673004
79201373722
79872592282
79299739206
79266500615
79199996429
79500369730
79516724354
79313285602
79680760161
79313689483
79042069823
79243878282
79117776158
79600543951
79035550966
79035550966
79050110355
79214030026
79313159274
79126802651
79817735896
79104851450
79234091615
79255532425
79216437172
79301730764
79522132853
79013159287
79094240864
79261735340
79522903610
79295014407
79166230700
79163952330
79688389089
79259356725
79998991044
79642996551
79520587704
79832826072
79967856312
79219592123
79518738166
79219421763
79505690282
79115531524
79211772381
79219617702
79216780884
79296809826
79255556385
79214114722
79218768871
79779806482
79535382196
79219261427
79296459686
79214441393
79174433073
79286664265
79153124652
79206965783
79121117888
79859174493
79201174473
79818812132
79824010881
79110497016
79219950706
79264764775
79537535678
79203466513
79110720673
79312770906
73,75299E11
79219221510
79252166144
79522110239
79602873818
79216445929
79161944435
79626888505
79218989990
79217861785
79208889824
79115132125
79216307783
79110589608
79296399880
79201290551
79081727465
79384794841
79522851909
77775659342
79045158180
79043002149
79215153159
79500003564
79219671331
79045194823
79263736695
79175996248
79203492922
79247524910
79231860312
79371490799
79500188582
79143063525
79069879826
79258405252
79151803759
79005035468
79530049120
79257948408
79787794626
79263775245
79773630533
79037832862
79685684944
79178733981
79655427658
79184612548
79518594434
79324742457
79164867172
79043185442
79612037161
79512649396
79296493689
79505693398
79153995510
79000936977
79173723790
79060578073
79227433862
79139676149
79780013943
79297988951
79806219061
79005308191
79261955511
79271837924
79004640069
79870518744
79324374836
79371142053
79202722049
79859294749
79292618513
79220459336
79041952399
79130512305
79241641398
77076124194
79263392631
79787597607
79163554813
79636746954
79210859205
79375376793
79205159298
79213625646
79224568896
79145232500
79261722079
79853499999
79263103938
79042834217
79265969622
79788596358
79029424915
79525604225
79629036948
79248025668
79152054067
79297988951
79371215595
79254116199
79152096969
79052214061
79992267692
79295013361
79501130625
79807839400
79119200731
79119985658
79313615293
79375491718
79502547956
79898512441
79781495869
73919872748
79502547956
79050123824
79613843499
79104082279
79533909892
79227572090
79221161581
79041797934
79122274799
79528060736
79234705588
79248005081
79119200731
79509207412
79999289948
79969343125
79969306091
79535274974
79788358591
79214564791
79671789152
79296459686
79284357805
79114381453
79081371652
79257191916
79012237781
79216408808
79002476580
79643265553
79047723764
79517177483
79006200897
79217631191
79604819791
79787149516
79264028649
79777469164
79284707088
79101496098
79788563521
79110264415
79020911011
79610884645
79135442801
79224639096
79803125801
79225590000
79017980241
79282686366
79656380411
79162744925
79636417981
79530167344
79245198515
79774682498
79160442143
79213846961
79655367207
79200597288
79263757387
79859147871
79212981946
79052133642
79638372723
79207995044
79516888059
79272513303
79256533989
79532689625
79268438627
79377706311
79166039178
79016303157
79523977107
71111111111
79108457476
79290008389
79064303796
79201068476
79200783533
79292262679
79109949406
79286626697
79618100889
79189420942
79017980241
79829867681
79219611817
79021834728
79625345395
79377773256
79521071070
79263103520
79241609323
79829982758
79025875330
79037227907
79377131534
79231668400
79324800188
79098914662
79212410851
79636848853
79292262679
79026071287
79237864745
79530303929
79261568785
79290107288
73,80963E11
79168434382
79512524519
79377136191
79787087168
79178784657
79264688237
79168469269
79202378191
79615354479
79154219417
79178705881
79778283840
77255903085
79301669815
79219832417
79023467817
79870711522
79260688899
73,75297E11
79519265796
79154993777
79316045550
79532600257
79267592935
79774160457
79518284212
79043296662
79097963598
79262812938
79530742749
79624434159
79205037770
79127174738
79042721104
79219620111
79122126083
79773739367
79312636236
77713803459
79854356218
79630503682
79253010890
79067607692
79278298330
79645172000
79517656915
79112361707
79255024495
79301669815
79323009390
79869676325
79297988951
79297988951
79522310450
79214441888
79111625252
79214193505
79297988951
79213268122
79215772270
79772511332
79217692796
79500448643
79213257687
79262170370
79102742961
79528559842
79104804026
79266891986
79384794841
79217896775
79299154960
79163086077
79522068802
79263759297
79297988951
79297988951
79670029811
79251020504
73,80988E11
79378213647
79773307800
79214037264
77022583505
79264028053
79313393992
79213093374
79817090863
79516706701
79872420542
79657955090
79312424272
79500359328
79166808066
79290894589
79206621276
79531546660
79022552852
79818496186
79201196114
79851958951
79292551100
79265543533
79675336163
79999999969
79217233108
79645172000
79152429004
79645172000
79183837027
79210708189
79052027073
79219814103
79670819377
79163331099
79521100701
79531571188
79184519111
79522357906
79219468134
79257171434
79290990345
79219518232
79967866074
79219619727
79521145417
79375298509
79009653002
73,75255E11
79148627427
79167043548
79210386515
79163440837
79217822081
79215962753
79216598143
79774007709
79039640564
79219870368
79206665614
79312604004
79215840521
79211145747
79531410200
79854233058
79218938231
79219523290
79219198931
79231218886
79258723237
79203409586
79811521422
79219612949
79253034450
79214888366
79537577555
79119574766
79531475587
79500427605
79214294645
79212837253
79112532970
79948468468
79313540530
79531683794
79219399141
79219037907
79312330508
79046322603
79310008170
79500236354
79643265059
79213215014
79219537851
79817909090
79219548722
79315866084
79218671009
79116433837
79523638489
79218693302
79219672649
79217963184
79214609161
79045177513
79531622789
79787818640
79213015838
79159003656
79219204299
79211058839
79315787399
79214509918
79110366668
79313391529
79255353235
79535472835
79646409030
79213730010
79632818132
79627290986
79219716151
74957876851
79217647117
79212638913
79219007808
79111887719
79153157582
79219482998
79312090673
79312898522
79119292211
79219405951
79821033858
79315128415
79967986463
79851204684
79998619094
79090020818
79524854415
79264799461
79210745496
79219406455
79533408766
79286664265
79035878870
79024164029
79295625779
79646481407
79045166152
79301227754
79515569837
79215880058
79151833329
79290107288
79218949331
79031497764
79279961331
79859747641
79203655108
79214115592
79817766699
79216380783
79219669957
79535051982
79210008888
79312083028
79278419900
79771243054
79522692027
79852341743
79219290282
79156652008
79324706734
79217845879
79219674065
79506765318
79262547182
79217957975
77495817298
79219412594
79506733555
79517338362
79771243054
79275488450
79213165177
79211533978
79212092253
79021308050
79967960867
79119556608
79111839140
79818492167
79213557771
79381368750
79518297540
79215904867
79500228042
79516671087
79217426653
79318537075
79107603819
79219462112
79219962240
79131423136
79650632776
79315857091
79011176858
79219510476
79319669103
79046906949
79219360829
79219509371
79775167984
79224205859
79162673057
79211889828
79165183412
79119413342
79261552563
79312209978
79250340006
79319659188
79082936603
79859251663
79651222353
79213606828
79216614040
79219849373
79167812204
79777745251
79535187525
79238856547
79219231849
79517550913
79062100532
79269102400
79313542900
79219123564
79152256571
79205358282
79022500395
79217890831
79213132296
79169759129
79161314729
79057904961
79163302736
79537205506
79062079999
79223664411
79005559558
79219710346
79269386949
79537193317
79263330510
79778991862
79221778837
79152025898
79219457472
79219490741
79212406297
79263624540
79313610789
79301167599
79199630393
79219138878
79258042099
79853140725
79099866016
79811992016
79291062856
79221627733
79219569562
79261070149
79671979761
79163335101
79006584498
79522800769
79218489298
79118307184
79163858616
79517159113
79097930444
79253782124
79296401831
79647622945
79217164893
79042075271
79522877003
79210227423
79210955248
79215555979
79990662470
79168759375
79318005364
79201033058
79045558970
79296641273
79219411753
79532658900
79684389337
79299426700
79165955924
79533466599
79213477104
79215225427
79522236966
79516837920
79113511199
79819881015
79500270319
79516531558
79819737473
79218679189
79319724673
79211916577
79147829487
79319634474
79250169308
79112520480
79500225366
79211707740
79313617707
79811072707
79112604614
79252062839
79218693649
79263833399
79161482986
79500087342
79265507566
79203634303
79211958562
79269452429
79216552125
79037234653
79219303793
79213698263
79217426900
79157817050
79048636573
79212350182
79258287553
79263574448
79032603545
79502206700
79219899480
79206775775
79060628385
79531597438
79219312253
79296512369
79817455613
79219666575
79219960506
79265679996
79533569164
79152974567
79521166595
79296650067
79052217733
79650080005
79114202883
79995321218
79500336769
79212621102
79258093914
79117841865
79522526883
79264793904
79218450718
79857275609
79523884878
79267883167
79213296231
79269060379
79119232641
79967665071
79214353796
79036670878
79217029352
79213148338
79219280089
79217432386
79266021757
79210966053
79253610158
79105014974
79859513373
79265716591
79826516100
79320586606
79063500246
79212834143
79210057889
79771243054
79219626877
79169304556
79104028936
79339998733
79262797782
79260909377
79523922212
79214373099
79996419033
79836167316
79057122284
79263568613
79266569771
79203876975
79259911389
79211549290
79990006644
79250101771
79167733420
79774421632
79265312291
79776448387
79206646167
79652604887
79060194091
79263614515
79210941974
79104321321
79256376554
79264751913
79312314853
79539390725
79262712647
79313872538
79216987727
79214296199
79251692266
79267846996
79009359444
79859360366
79111001525
79217916777
79216404333
79215404080
79817539170
79523530776
79201346186
79628826988
79009361053
79268518633
79052396323
79217857247
79119366880
79213494883
79217202190
79213304345
79218643548
79817735717
79228362505
79312118192
79215863417
79163882705
79537046847
79219655749
79215403018
79650248589
79263153112
79219356432
79006353599
79268806878
79210050404
79650410882
79215685240
79990149981
79203026828
79316041138
79313992062
79153216927
79046486025
79301105401
79313003063
79164950668
79520518851
79213697414
77376078872
79021365398
79213145830
79263146897
79219156824
79312767799
79296520140
79060644108
79160842064
79213022138
79119069793
79213540282
79214404805
79219419599
79062045279
79035967592
79854829176
79522614691
79219207030
79114332862
79219582790
79291660197
79213486651
79219624155
79216826361
79169536467
79268874385
79267417410
79212225666
79301173656
79535430273
79219643951
79217817706
79215623453
79112246070
79645234110
79811392726
79214490811
79163175503
79256289500
79213049865
79175458916
79657103371
79219628551
79313378990
79045538647
79112281453
79500159644
79990686150
79219396236
79212209462
79264163717
79166147992
79850070911
79013428419
79213133789
79516471159
79817797799
79500149406
79219655527
79253432178
79261531837
79295627265
79261178951
77055543551
79267659071
79022857564
79213272917
79990627349
79046058415
79313743317
79505898394
79218928612
79254229157
79009348012
79268288400
79267045301
79213311482
79213785013
79254421484
79508905546
79265376954
79522762921
79214336145
79042060379
79818259417
79115925508
79315317670
79299601763
79533551023
79215064828
79006447771
79523904780
79777820972
79151327887
79265921038
79096679741
79211830003
79114670244
79208906235
79250399695
79261786735
79850799055
79780775980
79532612959
79859777654
79811046236
79215209063
79031155635
79117684799
79013722772
79299991299
79028512314
79301781708
79200269023
79163716333
79213840553
79257724433
79529945057
79787336068
79284354400
79777227807
79217510079
79256503891
79060436232
79207121434
79214235856
79523905063
79967768029
79313640401
79853663652
79313996546
79164035115
79218820172
79169123761
79505735330
79852804221
79037830928
79850037077
79265222577
79258511873
79269391716
79771002212
79964184759
79004576025
79655313181
79002802965
79255199755
79680109559
79297988951
79614877519
79824688085
79381067656
79689473885
79192370374
79513332872
79080602436
79680109559
79531960933
79084657319
79031537376
79500012164
79852020324
79162002006
79853077722
79169321203
79518058544
79851820339
79009583398
79000883765
79288885775
79258204888
79282858069
79104989115
79164205298
79257077121
79202990266
79266646353
79216486796
79216486796
79216486796
79216486796
79210334552
79266598659
79266598659
79266598659
79266598659
79266598659
79226224550
79265334335
79193272083
79262478112
79003342001
79271533757
79274787261
79212102678
79775738983
79852214542
79122836701
79523950493
79612459102
79779668309
77773009647
77773009647
79522762790
79519426640
79251290832
79250068598
79160292000
79771500414
79217949982
79884701865
79881448912
79850961559
79154936761
79246523285
79253033230
79200664212
79272621165
79219294679
79224882093
79258284577
79640054976
79161612330
79034111412
79034111412
79216589957
79516597676
79380236537
79005798913
79168434650
79029404766
79251311655
74954695467
79118169685
79271025374
79215923175
79162610439
79654214484
79857848889
79260186699
79261497567
79214555921
79207654797
79517788307
79295484478
79990627503
79219445651
79169270911
79284855416
79203092779
79103606199
79299301117
79296650676
79296650676
79832926724
79508348630
79219063210
79138163921
79651017257
79897046285
79633054214
79271355849
79113026745
79101291690
79262690657
79269233332
79370171875
79206910539
79098456338
79228413059
79253677343
79628678263
73,80509E11
73,80509E11
79219341779
79153905385
79241606892
79163262066
79688589426
79253651114
79532087458
79277640105
79277640105
79096314756
79653412031
79201572005
79219187485
79333227971
79150347292
79254848242
79858295559
79152769123
79811508649
79660630011
79652808555
79260118887
79263597018
79036047954
79216321088
79515801816
79211337379
79123143943
79373339547
79251597500
79267184136
79856313319
79292767415
79261999111
79255060540
79209819959
79374283456
79223221533
79375953989
79067686835
79269688737
79267163563
79036994262
79503117955
79263831002
79036610659
79179934700
79255180600
79168434650
79159612650
79526239098
79603210299
79160875459
79186221126
79991992837
79991992837
79062610403
79251879293
79004615143
79852337518
79672044806
79259262045
79376336912
79063687999
79150010104
79148899851
79811698185
79216366460
79217631372
79372129359
79251439261
79031502001
79040547607
79653355965
79300300790
79224231691
79281549688
79998112297
79264140755
79250696781
79307156425
79857626038
79263616655
79788355769
79870518744
79296922230
79067004556
79263344302
79263337555
79869343713
74959914305
79852113388
79253910305
79267374560
79269990100
79227140357
79141972792
77751893055
79299777042
79290861909
79639053102
79062652720
79251105783
79379990391
79132122196
79312354467
79039762150
79319721696
79255145177
79117781723
79263686850
79017353576
79096034736
79266072568
79046454515
79811116699
79031387785
79261677397
79170381368
79852988170
79199495185
79213555256
79313253759
79218886032
79162402156
79213122077
79263103520
79297988951
79286632009
79201951306
79214092799
79189150011
79299588829
79299588829
79216386967
79613914736
79213427598
79069578494
79268767477
79268767477
79138291546
79265657634
79224341853
79252433944
79313594346
79219405890
79777860247
79223946969
79213150739
79251636507
79118377536
79613062707
79236296453
79148856439
79384041532
79299780682
79215772739
79855289693
79588072553
79661417153
79850003433
79618097617
79164338483
79298040597
79265444991
79210804530
79,96555E11
79996420049
79250347990
79080494440
79856474007
79772700169
79274408517
79258216594
79113544810
79150904592
79267612198
79172179214
79120442933
79992160935
79203590616
79376957294
79161436296
79151635773
79280797858
79161585183
79787383676
79099979116
79384969205
79264181077
79231793465
79856990372
79167338575
79994356506
79525644717
79269509952
79286651065
79631869608
79150772872
79151018782
79264544393
79265922906
79384794841
79308130329
79870711522
79296661787
79250593511
79852108426
79122432900
79151516325
79834049876
79258933244
79055913395
79267954911
79787842642
79304081173
79119573185
79104181800
79264097945
79627135575
79219288378
79275432680
79265686078
79160358883
79150614431
79372880310
79266462146
79265389977
79122952335
79857041886
79513321320
78482501100
79169521888
79037985262
79161081647
79165193860
79175844098
79154497850
79163026601
79606609853
79619628129
79998618911
79282070910
79261012661
79859991752
79153842265
79872562580
79030985932
79859980062
79206641321
79217854854
79251106202
79268485678
79219630342
79255072997
79620309542
79787194985
79524818497
79266709599
79110850142
79029900183
79263376542
79501791514
79219739214
79262240040
79648448085
79306682209
79030901076
79268447624
79601144690
79163280696
79298297837
79269845413
79661132555
79289544161
79585353544
79046489791
79600792877
79128162313
79114578538
79254055504
79222155985
79112898954
79261225566
79851352977
79036692110
79376543726
79223004603
79047511350
79775036630
79099475075
79089565066
79635636058
79857670004
79994955875
79211311320
79522100001
79203317390
79121920092
79251202321
79262345104
79042892238
79217431952
79216524129
79112694037
79819343284
79776058477
79276990899
79819819144
79265801113
79857764643
79825501607
79062859899
79663885377
79854259156
79778721632
79104658700
79288971351
79045163664
79297988951
79233459127
79203141489
79226063393
79522517880
79099136002
79516883010
79324732847
79967801583
79002499289
79856353424
79296459686
79996479428
79041364987
79227700028
79110360841
79162527905
79217117107
79268829941
79660740956
79397252152
79110817378
79533414592
79227047625
79651981333
79313900369
79530529635
79166243410
79167739020
79219321131
79219458181
79218219526
79219321131
79161159983
79111486078
79776262815
79006494778
79821452056
79818107454
79268856113
79889746075
79219242160
79087002469
79310027438
79006218800
79269431150
79162260404
79266347102
79645616129
79831581206
79260687745
79117551442
79017543514
79522488899
79788391049
79216559546
79206655385
79530067411
79854823188
79315808025
79035209194
79629722412
73,80973E11
79859115536
79296356892
79035180717
79219679297
79772676771
79204951002
79204951002
79266335005
79169955740
79263536965
79057522994
79852803232
79210618898
79097861143
79967834237
79787633809
79152062063
79104512053
79104512053
79045503518
79281293255
79214188321
79627617420
79627617420
79260657087
79257681741
79114751370
79516058330
79255256693
79852060479
79216580960
79856411445
79645676000
79645676000
79163123634
79991740055
79773117953
79063697757
79588125966
79167740478
79039022021
79518060849
79044773239
79258484442
79829705227
74955435383
79231124326
79231177428
79052777666
79166691597
79297988951
79283453800
79297988951
79280677736
78918065415
79219064859
79119294344
79065016362
79162784871
79150911043
79773125574
79533787612
79151804747
79013459100
79967673363
79999299658
79967823362
79167823368
79773991590
79774179969
79772644817
79516658937
79288885775
79258204888
79282858069
79104989115
79164205298
79257077121
79202990266
79266646353
79216486796
79216486796
79216486796
79216486796
79210334552
79266598659
79266598659
79266598659
79266598659
79266598659
79226224550
79265334335
79193272083
79262478112
79003342001
79271533757
79274787261
79212102678
79775738983
79852214542
79122836701
79523950493
79612459102
79779668309
77773009647
77773009647
79522762790
79519426640
79251290832
79250068598
79160292000
79771500414
79217949982
79884701865
79881448912
79850961559
79154936761
79246523285
79253033230
79200664212
79272621165
79219294679
79224882093
79258284577
79640054976
79161612330
79034111412
79034111412
79216589957
79516597676
79380236537
79005798913
79168434650
79029404766
79251311655
74954695467
79118169685
79271025374
79215923175
79162610439
79654214484
79857848889
79260186699
79261497567
79214555921
79207654797
79517788307
79295484478
79990627503
79219445651
79169270911
79284855416
79203092779
79103606199
79299301117
79296650676
79296650676
79832926724
79508348630
79219063210
79138163921
79651017257
79897046285
79633054214
79271355849
79113026745
79101291690
79262690657
79269233332
79370171875
79206910539
79098456338
79228413059
79253677343
79628678263
73,80509E11
73,80509E11
79219341779
79153905385
79241606892
79163262066
79688589426
79253651114
79532087458
79277640105
79277640105
79096314756
79653412031
79201572005
79219187485
79333227971
79150347292
79254848242
79858295559
79152769123
79811508649
79660630011
79652808555
79260118887
79263597018
79036047954
79216321088
79515801816
79211337379
79123143943
79373339547
79251597500
79267184136
79856313319
79292767415
79261999111
79255060540
79209819959
79374283456
79223221533
79375953989
79067686835
79269688737
79267163563
79036994262
79503117955
79263831002
79036610659
79179934700
79255180600
79168434650
79159612650
79526239098
79603210299
79160875459
79186221126
79991992837
79991992837
79062610403
79251879293
79004615143
79852337518
79672044806
79259262045
79376336912
79063687999
79150010104
79148899851
79811698185
79216366460
79217631372
79372129359
79251439261
79031502001
79040547607
79653355965
79300300790
79224231691
79281549688
79998112297
79264140755
79250696781
79307156425
79857626038
79263616655
79788355769
79870518744
79296922230
79067004556
79263344302
79263337555
79869343713
74959914305
79852113388
79253910305
79267374560
79269990100
79227140357
79141972792
77751893055
79299777042
79290861909
79639053102
79062652720
79251105783
79379990391
79132122196
79312354467
79039762150
79319721696
79255145177
79117781723
79263686850
79017353576
79096034736
79266072568
79046454515
79811116699
79031387785
79261677397
79170381368
79852988170
79199495185
79213555256
79313253759
79218886032
79162402156
79213122077
79263103520
79297988951
79286632009
79201951306
79214092799
79189150011
79299588829
79299588829
79216386967
79613914736
79213427598
79069578494
79268767477
79268767477
79138291546
79265657634
79224341853
79252433944
79313594346
79219405890
79777860247
79223946969
79213150739
79251636507
79118377536
79613062707
79236296453
79148856439
79384041532
79299780682
79215772739
79855289693
79588072553
79661417153
79850003433
79618097617
79164338483
79298040597
79265444991
79210804530
79,96555E11
79996420049
79250347990
79080494440
79856474007
79772700169
79274408517
79258216594
79113544810
79150904592
79267612198
79172179214
79120442933
79992160935
79203590616
79376957294
79161436296
79151635773
79280797858
79161585183
79787383676
79099979116
79384969205
79264181077
79231793465
79856990372
79167338575
79994356506
79525644717
79269509952
79286651065
79631869608
79150772872
79151018782
79264544393
79265922906
79384794841
79308130329
79870711522
79296661787
79250593511
79852108426
79122432900
79151516325
79834049876
79258933244
79055913395
79267954911
79787842642
79304081173
79119573185
79104181800
79264097945
79627135575
79219288378
79275432680
79265686078
79160358883
79150614431
79372880310
79266462146
79265389977
79122952335
79857041886
79513321320
78482501100
79169521888
79037985262
79161081647
79165193860
79175844098
79154497850
79163026601
79606609853
79619628129
79998618911
79282070910
79261012661
79859991752
79153842265
79872562580
79030985932
79859980062
79206641321
79217854854
79251106202
79268485678
79219630342
79255072997
79620309542
79787194985
79524818497
79266709599
79110850142
79029900183
79263376542
79501791514
79219739214
79262240040
79648448085
79306682209
79030901076
79268447624
79601144690
79163280696
79298297837
79269845413
79661132555
79289544161
79585353544
79046489791
79600792877
79128162313
79114578538
79254055504
79222155985
79112898954
79261225566
79851352977
79036692110
79376543726
79223004603
79047511350
79775036630
79099475075
79089565066
79635636058
79857670004
79994955875
79211311320
79522100001
79203317390
79121920092
79251202321
79262345104
79042892238
79217431952
79216524129
79112694037
79819343284
79776058477
79276990899
79819819144
79265801113
79857764643
79825501607
79062859899
79663885377
79854259156
79778721632
79104658700
79288971351
79045163664
79297988951
79233459127
79203141489
79226063393
79522517880
79099136002
79516883010
79324732847
79967801583
79002499289
79856353424
79296459686
79996479428
79041364987
79227700028
79110360841
79162527905
79217117107
79268829941
79660740956
79397252152
79110817378
79533414592
79227047625
79651981333
79313900369
79530529635
79166243410
79167739020
79219321131
79219458181
79218219526
79219321131
79161159983
79111486078
79776262815
79006494778
79821452056
79818107454
79268856113
79889746075
79219242160
79087002469
79310027438
79006218800
79269431150
79162260404
79266347102
79645616129
79831581206
79260687745
79117551442
79017543514
79522488899
79788391049
79216559546
79206655385
79530067411
79854823188
79315808025
79035209194
79629722412
73,80973E11
79859115536
79296356892
79035180717
79219679297
79772676771
79204951002
79204951002
79266335005
79169955740
79263536965
79057522994
79852803232
79210618898
79097861143
79967834237
79787633809
79152062063
79104512053
79104512053
79045503518
79281293255
79214188321
79627617420
79627617420
79260657087
79257681741
79114751370
79516058330
79255256693
79852060479
79216580960
79856411445
79645676000
79645676000
79163123634
79991740055
79773117953
79063697757
79588125966
79167740478
79039022021
79518060849
79044773239
79258484442
79829705227
74955435383
79231124326
79231177428
79052777666
79166691597
79297988951
79283453800
79297988951
79280677736
78918065415
79219064859
79119294344
79065016362
79162784871
79150911043
79773125574
79533787612
79151804747
79013459100
79967673363
79999299658
79967823362
79167823368
79773991590
79774179969
79772644817
79516658937
